<?xml version="1.0" encoding="utf-8"?>
<!-- Generator: Adobe Illustrator 17.0.0, SVG Export Plug-In . SVG Version: 6.00 Build 0)  -->
<!DOCTYPE svg PUBLIC "-//W3C//DTD SVG 1.1//EN" "http://www.w3.org/Graphics/SVG/1.1/DTD/svg11.dtd">
<svg version="1.1" id="Layer_1" xmlns="http://www.w3.org/2000/svg" xmlns:xlink="http://www.w3.org/1999/xlink" x="0px" y="0px"
	 width="419.528px" height="595.276px" viewBox="0 0 419.528 595.276" enable-background="new 0 0 419.528 595.276"
	 xml:space="preserve">
<g>
	<defs>
		<rect id="SVGID_1_" width="419.528" height="595.276"/>
	</defs>
	<clipPath id="SVGID_2_">
		<use xlink:href="#SVGID_1_"  overflow="visible"/>
	</clipPath>
	<path clip-path="url(#SVGID_2_)" d="M370.543,177.937h-25.272l25.272-15.696h-42.12l-8.424,15.696h8.424l8.424,15.696h-16.848
		v15.768h50.544V177.937z M312.583,162.241h-31.752v15.696h-6.336v31.464h12.672v-15.768h-6.336l6.336-15.696h6.408v15.696h12.672
		l-6.336-15.696h12.672V162.241z M267.08,177.937h-25.272l25.272-15.696h-42.12l-8.424,15.696h8.424l8.424,15.696h-16.848v15.768
		h50.544V177.937z M190.4,177.937v15.696l17.496,31.464v-31.464h-8.712v-15.696H190.4z M207.896,162.241H190.4l8.784,15.696h8.712
		V162.241z M190.4,162.241h-34.992v15.696h17.496v15.696h-8.784l-8.712,15.768l8.712,15.696v-15.696h17.568v-31.464L190.4,162.241z
		 M148.066,169.907c0-0.117,0.176,0.44,0.529,1.673c0.205,0.675,0.117,1.218-0.265,1.629c-1.027,0.352-1.79,0.073-2.289-0.837
		c-0.176-0.029-0.352,0.044-0.528,0.22c-0.206,0.147-0.368,0.235-0.484,0.264c-0.353,0.03-0.969-0.381-1.85-1.232
		c-0.293,0.646-0.836,0.836-1.629,0.572c-0.734-0.235-1.262-0.645-1.584-1.233c-0.705,0.558-1.497,0.661-2.378,0.308
		c-0.763-0.293-1.35-0.792-1.761-1.496c-0.176,0.352-0.279,0.528-0.308,0.528c-0.676,0.206-1.277,0.161-1.805-0.132
		c-0.528-0.264-0.881-0.675-1.057-1.233c-0.47,0.499-1.012,0.72-1.629,0.66c-0.616-0.088-1.056-0.469-1.32-1.144
		c-0.177,0-0.382,0.059-0.617,0.176c-0.264,0.147-0.47,0.22-0.616,0.22c-0.5-0.029-0.954-0.411-1.365-1.145
		c0-0.322-0.118-0.851-0.352-1.585c-0.206-0.704-0.279-1.276-0.22-1.717c-0.353-0.293-1.821-0.645-4.403-1.056
		c-0.029,0.117,0.073,0.704,0.308,1.761c0.529,2.729,0.367,5.606-0.484,8.629c3.17,7.924,3.977,15.497,2.421,22.717
		c1.966-1.115,2.95-3.551,2.95-7.308c0-1.262-0.162-2.788-0.484-4.579c-0.47-2.465-0.72-3.903-0.749-4.314
		c0.587,0.763,1.321,2.597,2.202,5.503c0.381,1.321,0.616,2.539,0.704,3.654v0.572c0,0.264,0.015,0.47,0.044,0.617
		c0.029,0.47,0.176,0.734,0.44,0.792c0.177,0.03,0.353-0.029,0.529-0.176c0.176-0.146,0.293-0.205,0.352-0.176
		c0.557,0.294,0.895,0.822,1.013,1.585c0.028,0.088,0.028,0.235,0,0.44c-0.03,0.206-0.03,0.367,0,0.484
		c0.058,0.118,0.205,0.265,0.44,0.441c0.264,0.205,0.425,0.352,0.484,0.44c0.059,0.118,0.117,0.294,0.176,0.528
		c0.059,0.324,0.103,0.529,0.132,0.617c0.088,0.264,0.529,0.954,1.321,2.069c0.821,1.174,2.289,3.053,4.403,5.635
		c1.203,2.289,2.744,4.462,4.622,6.516c-1.556-0.616-3.009-1.717-4.358-3.302c-0.44-0.499-0.984-1.218-1.629-2.157
		c-0.852-1.145-1.409-1.893-1.673-2.246c-1.908-2.465-3.742-4.461-5.503-5.987c-1.263-1.086-2.026-1.599-2.29-1.541
		c-0.088,0.03-0.235,0.22-0.44,0.572c-0.264,0.441-0.44,0.705-0.528,0.793c-0.236,0.264-0.749,0.66-1.541,1.189
		c-0.734,0.469-1.219,0.851-1.453,1.144c-0.03,0.059-0.132,0.25-0.308,0.573c-0.147,0.293-0.28,0.455-0.396,0.484
		c-0.236,0.117-0.529,0.117-0.881,0c-0.47-0.117-0.778-0.176-0.925-0.176c-0.117,0.029-0.293,0.103-0.528,0.22
		c-0.264,0.117-0.44,0.191-0.528,0.22c-0.412,0.118-1.057,0.22-1.937,0.308h-0.969c-0.44-0.029-0.763-0.029-0.968,0
		c0.469-0.058-1.336,1.248-5.416,3.918c0.029,0.118,0.015,0.236-0.044,0.353c-0.059,0.117-0.073,0.22-0.044,0.308
		c-0.646,0.47-0.924,0.646-0.836,0.528c-0.118,0.176-0.22,0.47-0.308,0.881c-0.059,0.44-0.148,0.748-0.264,0.924
		c-0.412,0.793-1.189,1.409-2.334,1.849c-1.262,0.47-2.333,0.397-3.214-0.22c-0.323,0.44-0.47,1.174-0.44,2.201
		c0.029,1.087-0.059,1.791-0.264,2.114c-0.088,0.088-0.793,0.337-2.113,0.748c0.088,0-0.192,0.176-0.837,0.528
		c-0.352,0.206-0.69,0.192-1.012-0.044c-0.676,0.646-1.512,0.969-2.51,0.969c-1.145,0-2.275-0.279-3.39-0.837
		c-0.088-0.028-0.25-0.132-0.484-0.308c-0.176-0.117-0.324-0.19-0.44-0.22c-0.177-0.058-0.529-0.117-1.057-0.176
		c-0.411-0.058-0.72-0.146-0.925-0.264c-0.323-0.205-0.558-0.44-0.704-0.704c-0.176-0.323-0.279-0.837-0.308-1.541
		c-0.059-0.705-0.162-1.189-0.308-1.453c-0.06-0.147-0.236-0.337-0.529-0.573c-0.293-0.264-0.484-0.469-0.572-0.616
		c-0.44-0.704-0.704-2.142-0.793-4.314c0.411-0.558,0.969-1.072,1.673-1.541c0.353-1.174,0.998-2.774,1.938-4.799
		c1.379-3.023,2.069-4.564,2.069-4.623c0.557-2.054,1.233-3.258,2.025-3.61c1.174-2.612,2.054-4.667,2.642-6.164
		c0.498-1.32,0.762-2.025,0.792-2.113c0.029-0.411-0.088-1.041-0.352-1.893c-0.264-0.851-0.368-1.497-0.308-1.937
		c0,0.029,0.117-0.293,0.352-0.969c0.029-0.088,0.073-0.234,0.132-0.44c0.029-0.205,0.058-0.352,0.088-0.44
		c0.293-0.675,0.969-1.379,2.025-2.113c1.115-0.763,1.82-1.394,2.113-1.894c0.029-0.058,0.073-0.176,0.132-0.352
		c0.029-0.176,0.073-0.293,0.133-0.352c0.44-0.88,0.645-1.262,0.616-1.145c0.029-0.117,0.014-0.264-0.044-0.44
		c-0.088-0.176-0.132-0.308-0.132-0.396c0-0.499,0.249-1.145,0.748-1.937c0.029-0.059,0.323-0.352,0.881-0.881
		c0.616,0.059,1.129-0.102,1.541-0.484c0.088-0.059,0.264-0.22,0.528-0.484c0.176-0.205,0.337-0.367,0.484-0.485
		c-2.553-1.731-3.904-3.874-4.05-6.427c-0.059-0.881,0-1.849,0.176-2.906c0.293-1.79,0.675-2.862,1.145-3.214h0.044
		c0.058,0,0.337,0.998,0.836,2.994c0.411,1.497,0.749,2.436,1.013,2.817c0.029,0,1.173,0.778,3.434,2.334
		c0.851,0.587,1.203,0.866,1.056,0.836c0.265,0.059,0.675-0.014,1.233-0.22c0.528-0.176,0.983-0.205,1.365-0.088
		c-0.5-1.203-0.558-2.626-0.176-4.27c0.117-0.441,0.322-1.13,0.616-2.07c0.264-0.909,0.455-1.585,0.573-2.025
		c-0.236-0.205,0.616,1.747,2.553,5.856c0.117,0.235,0.249,0.587,0.396,1.056c0.147,0.47,0.264,0.793,0.352,0.969
		c0.117,0.264,0.411,0.616,0.881,1.056c0.411,0.382,0.675,0.734,0.792,1.057c0.265-0.264,0.631-0.337,1.101-0.22
		c0.147,0.03,0.352,0.103,0.616,0.22c0.265,0.118,0.47,0.191,0.617,0.22c0.528,0.176,1.291,0.279,2.289,0.308
		c1.321,0.088,2.128,0.148,2.422,0.176c0.117-0.088,0.22-0.234,0.308-0.44c0.058-0.176,0.161-0.293,0.308-0.352
		c0.381-0.146,1.027,0.118,1.937,0.792c0.645-0.498,1.306-0.542,1.981-0.132c0.617,0.382,0.895,0.573,0.837,0.573
		c0.234,0.029,0.528-0.029,0.88-0.176c0.323-0.147,0.557-0.22,0.705-0.22c0.234,0.029,0.484,0.205,0.748,0.528
		c0.293,0.323,0.513,0.514,0.66,0.572c0.147-0.029,0.338-0.132,0.573-0.308c0.205-0.117,0.396-0.176,0.572-0.176
		c0.323,0,0.705,0.176,1.145,0.528c0.499,0.44,0.836,0.676,1.012,0.705c0.558-0.441,1.218-0.485,1.982-0.132
		c0.205,0.088,0.762,0.455,1.673,1.1c0.645-0.499,1.364-0.44,2.157,0.176c0.088,0.088,0.264,0.324,0.528,0.705
		c0.205,0.264,0.396,0.411,0.572,0.44c0.147,0.03,0.367,0.015,0.661-0.044c0.293-0.059,0.499-0.088,0.616-0.088
		c0.998,0.117,1.629,0.558,1.893,1.321c0.088,0.205,0.117,0.484,0.088,0.836C148.095,169.554,148.066,169.819,148.066,169.907
		 M107.166,159.605c0.646,2.142,0.91,3.537,0.793,4.182c0.322,0.088,0.557,0,0.704-0.264c0.059-0.059,0.132-0.191,0.22-0.396
		c0.088-0.147,0.161-0.265,0.22-0.353c0.47-0.557,0.705-0.806,0.705-0.748c0,0.03-0.338-0.381-1.013-1.233
		c-0.587-0.704-1.086-1.1-1.497-1.188H107.166z M108.619,164.403c-0.88,0.265-1.497,0.764-1.849,1.497
		c2.612,0.176,5.136,0.969,7.573,2.378c0.821,0.44,1.833,1.086,3.037,1.937c1.585,1.116,2.568,1.79,2.95,2.025
		c0.587-1.731,0.881-3.272,0.881-4.623c0.028-1.555-0.265-2.7-0.881-3.434c-0.147-0.176-0.543-0.484-1.189-0.924
		c-0.528-0.353-0.851-0.749-0.968-1.189c-0.088,0.323-0.176,0.808-0.264,1.453c-0.088,0.675-0.162,1.16-0.221,1.453
		c-0.264,1.086-0.704,1.79-1.32,2.113c0.176,0.118,0.088-0.455-0.264-1.717c-0.06-0.205-0.47-0.793-1.233-1.761
		c-0.793-1.057-1.218-1.585-1.277-1.585c-0.264-0.058-0.587,0.03-0.968,0.264c-0.412,0.235-0.676,0.5-0.793,0.793
		c-0.03,0.088-0.044,0.22-0.044,0.396c-0.03,0.176-0.059,0.308-0.088,0.396c-0.03,0.147-0.176,0.323-0.44,0.528
		c-0.324,0.294-0.529,0.5-0.617,0.617c-0.088,0.088-0.191,0.235-0.308,0.44c-0.117,0.176-0.205,0.294-0.264,0.352
		c-0.235,0.264-0.558,0.368-0.969,0.308C109.132,166.15,108.971,165.578,108.619,164.403 M98.185,213.888
		c0.381-0.41,0.733-1.056,1.057-1.937c0.41-1.085,0.689-1.746,0.836-1.981c0.499-0.939,1.086-1.673,1.761-2.201
		c-0.147-0.176-0.22-0.469-0.22-0.881c0-0.469-0.015-0.777-0.044-0.924c-0.03-0.059-0.103-0.161-0.22-0.308
		c-0.118-0.147-0.191-0.265-0.22-0.353c-0.088-0.234-0.132-0.528-0.132-0.88c0.029-1.174,0.454-2.201,1.276-3.082
		c0.851-0.909,1.878-1.379,3.082-1.409c-3.141-4.226-6.046-6.78-8.717-7.66c-0.294,0.646-0.792,1.57-1.497,2.773
		c-0.704,1.204-1.204,2.114-1.497,2.73c-0.029,0.088-0.088,0.264-0.176,0.528c-0.059,0.235-0.117,0.412-0.176,0.529
		c-0.176,0.44-0.44,0.66-0.792,0.66c0.088-0.557,0.616-1.849,1.585-3.874c0.88-1.849,1.437-3.097,1.673-3.743
		c-0.822-0.088-1.351-0.028-1.585,0.177c-1.292,3.317-2.422,5.885-3.39,7.704c-0.088,0.147-0.338,0.544-0.749,1.189
		c-0.323,0.499-0.528,0.895-0.616,1.188c-0.382,1.057-0.528,1.541-0.44,1.453c-0.088,0.088-0.294,0.176-0.617,0.264
		c-0.264,0.089-0.44,0.192-0.528,0.309c-0.235,0.381-0.264,0.924-0.088,1.629c0.235,0.822,0.323,1.364,0.264,1.629
		c0.147,0.235,0.469,0.557,0.969,0.968c0.41,0.382,0.674,0.778,0.792,1.189c0.029,0.176,0.029,0.44,0,0.792
		c-0.029,0.412-0.029,0.705,0,0.881c0.117,0.822,0.469,1.336,1.057,1.541c0.176,0.059,0.425,0.088,0.748,0.088
		c0.352-0.029,0.601-0.015,0.749,0.044c0.205,0.029,0.498,0.147,0.88,0.352c0.381,0.206,0.675,0.338,0.881,0.396
		C95.616,214.226,96.981,214.3,98.185,213.888 M102.323,211.775c-0.147-1.203,0.015-2.333,0.485-3.39
		c-0.264-0.117-0.485-0.058-0.661,0.176c-0.235,0.294-0.425,0.44-0.572,0.44c-1.086,1.645-1.791,3.082-2.113,4.315
		c0.176-0.088,0.44-0.176,0.792-0.264c0.469-0.147,0.749-0.235,0.837-0.264C101.736,212.553,102.147,212.215,102.323,211.775
		 M104.437,207.637c0.616,0.264,1.276,0.22,1.981-0.132c0.704-0.353,1.115-0.822,1.233-1.409c-0.177,0.117-0.764,0.323-1.761,0.616
		C105.097,206.918,104.613,207.226,104.437,207.637 M104.525,206.712c0.264-0.234,0.895-0.616,1.893-1.145
		c0.792-0.44,1.35-0.88,1.673-1.32c-0.558-1.79-1.395-2.686-2.51-2.686c-0.998-0.029-1.776,0.412-2.333,1.321
		c-0.616,0.91-0.72,1.864-0.308,2.862c0.381-0.059,0.689,0.059,0.924,0.352C104.157,206.448,104.378,206.654,104.525,206.712
		 M108.619,198.92c0.088,0,0.411-0.382,0.969-1.145c0.498-0.704,1.335-2.025,2.509-3.962c3.111-5.195,5.752-11.153,7.925-17.875
		c-3.082-3.933-7.94-6.501-14.573-7.704c-0.528-0.088-0.939,0.044-1.232,0.396c0,0.029-0.206,0.44-0.617,1.233
		c-1.292,2.436-2.568,3.903-3.83,4.402c-0.088,0.206-0.264,0.514-0.528,0.925c-0.294,0.44-0.485,0.763-0.573,0.968
		c-0.381,0.822-0.352,1.527,0.088,2.113c0.088,0,0.205-0.102,0.353-0.308c0.088-0.176,0.205-0.234,0.352-0.176
		c-0.118,1.556-0.602,3.596-1.453,6.12c-0.764,2.319-1.512,4.109-2.245,5.371c0.176,0.03,0.396,0.074,0.66,0.132
		c0.293,0.088,0.513,0.147,0.66,0.176c0.353-0.528,0.866-1.453,1.541-2.773c0.617-1.233,1.159-2.143,1.629-2.73
		c0.147-0.205,0.397-0.499,0.749-0.881c0.322-0.41,0.572-0.718,0.748-0.924c0.645-0.851,1.174-1.365,1.585-1.541
		c0.029,0.206,0,0.396-0.088,0.572c-0.147,0.236-0.22,0.426-0.22,0.573c-0.5,0.557-2.201,3.243-5.107,8.056
		c2.846,1.204,5.327,2.965,7.44,5.283c0.235,0.236,0.557,0.632,0.969,1.189c0.411,0.528,0.733,0.925,0.968,1.189
		c0.059,0.059,0.147,0.132,0.265,0.22c0.116,0.059,0.205,0.132,0.264,0.22c-0.03-0.029,0.073,0.147,0.308,0.528
		C108.281,198.803,108.443,198.92,108.619,198.92 M122.795,180.781c-0.411-1.937-0.836-3.287-1.276-4.05
		c0-0.059-0.015-0.088-0.044-0.088c-0.734,2.729-1.057,3.947-0.969,3.654c-0.734,2.465-2.084,5.606-4.05,9.421
		c-2.055,3.963-3.082,5.929-3.082,5.9c-0.411,0.646-1.028,1.526-1.849,2.641c-0.852,1.204-1.468,2.085-1.849,2.642
		c0.058,0.176,0.161,0.455,0.308,0.836c0.117,0.352,0.191,0.646,0.22,0.881c0.235-0.088,1.027-1.027,2.377-2.818
		c-0.029-0.176-0.176-0.396-0.44-0.66c-0.235-0.235-0.308-0.469-0.22-0.705c0.029-0.029,0.484,0.044,1.365,0.22
		c3.023,0.676,5.738,0.529,8.145-0.44c0.939-0.41,1.437-0.631,1.497-0.66c0.176-0.235,0.381-1.042,0.616-2.422
		c0.381-1.907,0.308-5.356-0.22-10.346C123.118,182.909,122.942,181.573,122.795,180.781 M113.638,162.73v0.529
		c-0.029,0.235-0.029,0.396,0,0.484c0.059,0.382,0.235,0.764,0.528,1.145c0.353,0.44,0.558,0.763,0.617,0.968
		c-0.558-0.146-1.013-0.572-1.365-1.277c-0.382-0.733-0.323-1.364,0.176-1.893C113.623,162.657,113.638,162.672,113.638,162.73
		 M115.355,166.296c0.029,0.118,0.367,0.837,1.013,2.158c-0.47-0.059-0.837-0.323-1.101-0.793c-0.264-0.44-0.294-0.895-0.088-1.365
		H115.355z M108.751,176.026c0.059,0.646,0.059,1.277,0,1.893c-0.822-0.939-1.262-1.937-1.321-2.993
		c-0.088-1.086,0.353-2.524,1.321-4.315c0.235-0.176,0.367-0.337,0.396-0.484l0.089-0.044c0.028,0,0.044-0.015,0.044-0.044
		c0.146,0.528,0.044,1.203-0.309,2.025c-0.411,0.968-0.616,1.644-0.616,2.025c0,0.206,0.058,0.514,0.176,0.925
		c0.117,0.499,0.176,0.748,0.176,0.748S108.722,175.85,108.751,176.026 M113.506,175.454c-0.675-0.117-1.013-0.528-1.013-1.233
		c0.205-0.029,0.411,0.015,0.617,0.132c0.205,0.118,0.366,0.176,0.484,0.176c0.411-0.029,0.749-0.337,1.013-0.924
		c-0.059,0.147,0.132-0.367,0.572-1.541h0.176c0.44,0.675,0.44,1.453,0,2.333C114.915,175.278,114.299,175.63,113.506,175.454
		 M131.953,182.058c0.763,0.587,2.01,1.585,3.742,2.993c1.585,1.292,2.847,2.29,3.786,2.994c0.851,0.646,1.306,1.042,1.365,1.189
		c-0.411-0.029-1.174-0.396-2.289-1.101c-2.231-1.379-4.3-2.773-6.208-4.182c-1.732-1.262-2.715-2.01-2.95-2.245
		c-1.027-0.998-1.614-2.143-1.761-3.435c-0.029-0.204-0.044-0.66-0.044-1.364c0-0.617-0.044-1.13-0.132-1.541
		c-0.205-0.91-0.308-1.35-0.308-1.321c0.029-0.029,0.059-0.029,0.088,0c0.029,0.03,0.059,0.044,0.088,0.044
		c0.293,0.558,0.572,1.482,0.837,2.774c0.293,1.204,0.586,2.069,0.88,2.597C129.311,179.9,130.28,180.767,131.953,182.058
		 M118.437,176.114c0.088,2.113-0.72,3.566-2.421,4.359c0-0.117,0.044-0.279,0.132-0.485c0.088-0.176,0.132-0.322,0.132-0.44
		c0.498-0.322,0.865-1.1,1.1-2.333c0.264-1.35,0.558-2.216,0.881-2.598h0.088C118.349,174.647,118.378,175.146,118.437,176.114
		 M115.355,179.108c-0.235-0.029-0.675-0.264-1.321-0.704c-0.587-0.382-1.159-0.543-1.717-0.485
		c0.235-0.469,0.631-0.557,1.189-0.264c0.088,0.059,0.528,0.382,1.321,0.969l0.396,0.176c0.117,0.088,0.176,0.132,0.176,0.132
		S115.384,178.991,115.355,179.108 M111.129,181.882c-0.118,0-0.236,0.029-0.353,0.088c-0.147,0.059-0.264,0.088-0.352,0.088
		c-0.059-0.499,0.029-1.203,0.264-2.114c0.353-1.261,0.763-1.833,1.233-1.717c0.381,0.089,0.939,0.353,1.673,0.793
		c0.91,0.528,1.467,0.836,1.673,0.924c-0.147,0.852-0.646,1.483-1.497,1.894C112.89,182.249,112.009,182.263,111.129,181.882
		 M112.361,180.253c0.176-0.235,0.22-0.425,0.132-0.573c-0.088-0.117-0.22-0.176-0.396-0.176c-0.176,0-0.308,0.059-0.396,0.176
		c-0.118,0.148-0.118,0.338,0,0.573H112.361z M113.638,184.963c-0.088,0.176-0.308,0.602-0.66,1.277
		c-0.264,0.558-0.5,0.998-0.705,1.321l-1.761,2.201c-0.968,1.233-1.468,2.025-1.497,2.378c0,0.235,0.088,0.587,0.265,1.056
		c0.176,0.412,0.205,0.764,0.088,1.057c-0.412-0.235-0.734-0.587-0.969-1.057c-0.264-0.557-0.308-1.129-0.132-1.717
		c-0.088,0.236,0.909-1.159,2.994-4.182c0.44-0.645,0.939-1.335,1.497-2.069c0.909-1.233,1.613-2.07,2.113-2.51h0.088
		c0.146,0.059,0.102,0.235-0.132,0.528c-0.617,0.822-0.925,1.233-0.925,1.233S113.814,184.641,113.638,184.963 M98.625,201.297
		c0.91,0.264,1.424,1.16,1.541,2.686c0.117,1.438-0.132,2.539-0.748,3.302c-0.118-0.499-0.147-1.306-0.088-2.422
		c0.058-0.968-0.015-1.702-0.22-2.201c0.058,0.147-0.074-0.044-0.397-0.573C98.566,201.855,98.537,201.591,98.625,201.297
		 M94.751,203.322c-0.059-0.176,0.689,0.47,2.245,1.937c0.763,0.705,1.101,1.644,1.013,2.818c-0.03,0.792-0.382,1.468-1.057,2.025
		c-0.763,0.588-1.6,0.705-2.509,0.352c0-0.44,0.278-0.763,0.836-0.968c0.617-0.205,0.954-0.455,1.013-0.749
		c-0.323-0.469-0.808-0.586-1.453-0.352c-0.616,0.235-0.954,0.602-1.012,1.101c-0.529-0.323-0.764-0.881-0.705-1.673
		c0.088-0.733,0.367-1.321,0.837-1.761c0.117-0.117,0.352-0.249,0.704-0.396c0.293-0.147,0.469-0.293,0.528-0.441
		c-0.029-0.117-0.117-0.264-0.264-0.44c-0.176-0.235-0.294-0.396-0.352-0.484C94.369,203.91,94.428,203.586,94.751,203.322
		 M72.49,162.241H39.658v31.392l-8.208,15.768h16.416l8.208-15.768h-8.208v-15.696h16.416l8.208,15.696l-16.416,15.768v15.696h8.208
		v-15.696h16.416v-31.464H72.49V162.241z"/>
</g>
<path d="M305.696,127.435l-9.144-15.696h18.288l9.144,15.696H305.696z M278.264,111.739l9.144-15.696h-9.144V111.739z
	 M323.984,111.739V96.043h-36.576v15.696l9.144,15.696h-9.144l-9.144,15.768h54.864v-31.464H323.984z M268.976,96.043h-19.008
	v15.696h9.504v15.696h-9.504v15.768h9.504v15.696h9.504V96.043z M249.968,96.043h-38.016v15.696h19.008v15.696h-9.504l-9.504,15.768
	l9.504,15.696v-15.696h19.008v-31.464L249.968,96.043z M167.744,127.435l-7.2,15.768l7.2,15.696h7.128l7.2-15.696h-7.2v-15.768
	l7.2-15.696h-7.2L167.744,127.435z M196.4,127.435V96.043h-14.328v15.696h7.2v31.464h7.128l7.2,15.696v-31.464H196.4z
	 M167.744,96.043h-7.2v15.696h7.2V96.043z"/>
<polygon points="390.944,45.339 365.672,45.339 390.944,29.643 348.824,29.643 340.4,45.339 348.824,45.339 357.248,61.035 
	340.4,61.035 340.4,76.803 390.944,76.803 "/>
<path fill="#FFFFFF" d="M256.233,76.803l12.312,15.696V76.803h12.312V61.035h-12.312L256.233,76.803z M317.721,92.499h12.312V29.643
	h-12.312V92.499z M293.097,29.643v47.16h12.312V45.339l12.312-15.696H293.097z M256.233,29.643v15.696h12.312l12.312,15.696V29.643
	H256.233z"/>
<path d="M228.225,45.339v15.696l17.496,31.464V61.035h-8.712V45.339H228.225z M245.721,29.643h-17.496l8.784,15.696h8.712V29.643z
	 M228.225,29.643h-34.992v15.696h17.496v15.696h-8.784l-8.712,15.768l8.712,15.696V76.803h17.568V45.339L228.225,29.643z
	 M174.154,29.643h-29.448l-19.584,31.392h19.584V45.339h19.656l9.792,15.696L154.57,76.803l-19.656-15.768l-9.792,15.768h19.584
	v15.696h19.656V76.803h19.584V45.339h-9.792V29.643z M60.539,92.499h13.248V76.803H60.539V92.499z M73.786,61.035h13.248V45.339
	H73.786V61.035z M113.603,29.643H87.035l13.32,15.696v15.696h-13.32v31.464h13.32V76.803h13.248V29.643z M60.539,45.339h13.248
	V29.643L60.539,45.339z M60.539,29.643H33.971v15.696h13.248v15.696L33.971,76.803h13.248l13.32-15.768V29.643z"/>
<g>
	<defs>
		<rect id="SVGID_3_" width="419.528" height="595.276"/>
	</defs>
	<clipPath id="SVGID_4_">
		<use xlink:href="#SVGID_3_"  overflow="visible"/>
	</clipPath>
	<path clip-path="url(#SVGID_4_)" d="M310.955,82.39c-0.188-0.121-1.978,3.531-1.79,3.657
		C309.349,86.173,311.138,82.516,310.955,82.39 M307.708,86.432c-0.67,0-1.003,0.065-1.003,0.191c0,0.131,0.333,0.196,1.003,0.196
		c0.671,0,1.004-0.065,1.004-0.196C308.712,86.497,308.379,86.432,307.708,86.432 M305.359,86.432c-0.671,0-1.004,0.065-1.004,0.191
		c0,0.131,0.333,0.196,1.004,0.196c0.67,0,1.003-0.065,1.003-0.196C306.362,86.497,306.029,86.432,305.359,86.432 M303.01,86.432
		c-0.671,0-1.004,0.065-1.004,0.191c0,0.131,0.333,0.196,1.004,0.196c0.67,0,1.003-0.065,1.003-0.196
		C304.013,86.497,303.68,86.432,303.01,86.432 M300.66,86.432c-0.67,0-1.003,0.065-1.003,0.191c0,0.131,0.333,0.196,1.003,0.196
		c0.671,0,1.004-0.065,1.004-0.196C301.664,86.497,301.331,86.432,300.66,86.432 M298.311,86.432c-0.67,0-1.003,0.065-1.003,0.191
		c0,0.131,0.333,0.196,1.003,0.196c0.671,0,1.004-0.065,1.004-0.196C299.315,86.497,298.982,86.432,298.311,86.432 M295.065,82.39
		c-0.184,0.126,1.606,3.783,1.789,3.657C297.042,85.921,295.253,82.269,295.065,82.39 M275.717,82.39
		c-0.188-0.121-1.978,3.531-1.79,3.657C274.111,86.173,275.9,82.516,275.717,82.39 M272.47,86.432c-0.671,0-1.004,0.065-1.004,0.191
		c0,0.131,0.333,0.196,1.004,0.196c0.67,0,1.003-0.065,1.003-0.196C273.473,86.497,273.14,86.432,272.47,86.432 M270.121,86.432
		c-0.671,0-1.004,0.065-1.004,0.191c0,0.131,0.333,0.196,1.004,0.196c0.67,0,1.003-0.065,1.003-0.196
		C271.124,86.497,270.791,86.432,270.121,86.432 M267.771,86.432c-0.67,0-1.003,0.065-1.003,0.191c0,0.131,0.333,0.196,1.003,0.196
		c0.671,0,1.004-0.065,1.004-0.196C268.775,86.497,268.442,86.432,267.771,86.432 M264.525,82.39
		c-0.184,0.126,1.606,3.783,1.79,3.657C266.503,85.921,264.713,82.269,264.525,82.39"/>
	<path clip-path="url(#SVGID_4_)" fill="none" stroke="#000000" stroke-miterlimit="2.187" d="M310.955,82.39
		c-0.188-0.121-1.978,3.531-1.79,3.657C309.349,86.173,311.138,82.516,310.955,82.39z M307.708,86.432
		c-0.67,0-1.003,0.065-1.003,0.191c0,0.131,0.333,0.196,1.003,0.196c0.671,0,1.004-0.065,1.004-0.196
		C308.712,86.497,308.379,86.432,307.708,86.432z M305.359,86.432c-0.671,0-1.004,0.065-1.004,0.191
		c0,0.131,0.333,0.196,1.004,0.196c0.67,0,1.003-0.065,1.003-0.196C306.362,86.497,306.029,86.432,305.359,86.432z M303.01,86.432
		c-0.671,0-1.004,0.065-1.004,0.191c0,0.131,0.333,0.196,1.004,0.196c0.67,0,1.003-0.065,1.003-0.196
		C304.013,86.497,303.68,86.432,303.01,86.432z M300.66,86.432c-0.67,0-1.003,0.065-1.003,0.191c0,0.131,0.333,0.196,1.003,0.196
		c0.671,0,1.004-0.065,1.004-0.196C301.664,86.497,301.331,86.432,300.66,86.432z M298.311,86.432c-0.67,0-1.003,0.065-1.003,0.191
		c0,0.131,0.333,0.196,1.003,0.196c0.671,0,1.004-0.065,1.004-0.196C299.315,86.497,298.982,86.432,298.311,86.432z M295.065,82.39
		c-0.184,0.126,1.606,3.783,1.789,3.657C297.042,85.921,295.253,82.269,295.065,82.39z M275.717,82.39
		c-0.188-0.121-1.978,3.531-1.79,3.657C274.111,86.173,275.9,82.516,275.717,82.39z M272.47,86.432
		c-0.671,0-1.004,0.065-1.004,0.191c0,0.131,0.333,0.196,1.004,0.196c0.67,0,1.003-0.065,1.003-0.196
		C273.473,86.497,273.14,86.432,272.47,86.432z M270.121,86.432c-0.671,0-1.004,0.065-1.004,0.191c0,0.131,0.333,0.196,1.004,0.196
		c0.67,0,1.003-0.065,1.003-0.196C271.124,86.497,270.791,86.432,270.121,86.432z M267.771,86.432c-0.67,0-1.003,0.065-1.003,0.191
		c0,0.131,0.333,0.196,1.003,0.196c0.671,0,1.004-0.065,1.004-0.196C268.775,86.497,268.442,86.432,267.771,86.432z M264.525,82.39
		c-0.184,0.126,1.606,3.783,1.79,3.657C266.503,85.921,264.713,82.269,264.525,82.39z"/>
	<path clip-path="url(#SVGID_4_)" d="M313.303,76.341c-0.188-0.121-1.977,3.531-1.789,3.657
		C311.697,80.124,313.487,76.467,313.303,76.341 M292.715,76.341c-0.184,0.126,1.606,3.783,1.79,3.657
		C294.692,79.872,292.903,76.22,292.715,76.341 M278.065,76.341c-0.188-0.121-1.978,3.531-1.79,3.657
		C276.459,80.124,278.249,76.467,278.065,76.341 M271.017,76.341c-0.187-0.121-1.977,3.531-1.789,3.657
		C269.411,80.124,271.201,76.467,271.017,76.341 M266.874,76.341c-0.184,0.126,1.606,3.783,1.789,3.657
		C268.851,79.872,267.061,76.22,266.874,76.341 M262.175,76.341c-0.184,0.126,1.606,3.783,1.79,3.657
		C264.153,79.872,262.363,76.22,262.175,76.341 M256.933,76.487c-0.12,0-0.299,0.448-0.542,1.35c-0.244,0.902-0.483,0.902-0.727,0
		c-0.243-0.902-0.422-1.35-0.546-1.35c-0.244,0,0.67,3.275,0.909,3.275C256.267,79.762,257.172,76.487,256.933,76.487"/>
	<path clip-path="url(#SVGID_4_)" fill="none" stroke="#000000" stroke-miterlimit="2.187" d="M313.303,76.341
		c-0.188-0.121-1.977,3.531-1.789,3.657C311.697,80.124,313.487,76.467,313.303,76.341z M292.715,76.341
		c-0.184,0.126,1.606,3.783,1.79,3.657C294.692,79.872,292.903,76.22,292.715,76.341z M278.065,76.341
		c-0.188-0.121-1.978,3.531-1.79,3.657C276.459,80.124,278.249,76.467,278.065,76.341z M271.017,76.341
		c-0.187-0.121-1.977,3.531-1.789,3.657C269.411,80.124,271.201,76.467,271.017,76.341z M266.874,76.341
		c-0.184,0.126,1.606,3.783,1.789,3.657C268.851,79.872,267.061,76.22,266.874,76.341z M262.175,76.341
		c-0.184,0.126,1.606,3.783,1.79,3.657C264.153,79.872,262.363,76.22,262.175,76.341z M256.933,76.487
		c-0.12,0-0.299,0.448-0.542,1.35c-0.244,0.902-0.483,0.902-0.727,0c-0.243-0.902-0.422-1.35-0.546-1.35
		c-0.244,0,0.67,3.275,0.909,3.275C256.267,79.762,257.172,76.487,256.933,76.487z"/>
	<path clip-path="url(#SVGID_4_)" d="M315.652,70.294c-0.188-0.121-1.977,3.531-1.789,3.657
		C314.046,74.077,315.836,70.42,315.652,70.294 M290.366,70.294c-0.184,0.126,1.605,3.783,1.789,3.657
		C292.343,73.825,290.553,70.173,290.366,70.294 M280.414,70.294c-0.188-0.121-1.978,3.531-1.79,3.657
		C278.808,74.077,280.598,70.42,280.414,70.294 M273.366,70.294c-0.187-0.121-1.977,3.531-1.789,3.657
		C271.76,74.077,273.55,70.42,273.366,70.294 M264.524,70.294c-0.184,0.126,1.606,3.783,1.79,3.657
		C266.502,73.825,264.712,70.173,264.524,70.294 M259.826,70.294c-0.184,0.126,1.606,3.783,1.789,3.657
		C261.803,73.825,260.014,70.173,259.826,70.294 M259.271,70.294c-0.188-0.121-1.977,3.531-1.789,3.657
		C257.665,74.077,259.455,70.42,259.271,70.294 M256.922,70.294c-0.188-0.121-1.978,3.531-1.79,3.657
		C255.316,74.077,257.106,70.42,256.922,70.294"/>
	<path clip-path="url(#SVGID_4_)" fill="none" stroke="#000000" stroke-miterlimit="2.187" d="M315.652,70.294
		c-0.188-0.121-1.977,3.531-1.789,3.657C314.046,74.077,315.836,70.42,315.652,70.294z M290.366,70.294
		c-0.184,0.126,1.605,3.783,1.789,3.657C292.343,73.825,290.553,70.173,290.366,70.294z M280.414,70.294
		c-0.188-0.121-1.978,3.531-1.79,3.657C278.808,74.077,280.598,70.42,280.414,70.294z M273.366,70.294
		c-0.187-0.121-1.977,3.531-1.789,3.657C271.76,74.077,273.55,70.42,273.366,70.294z M264.524,70.294
		c-0.184,0.126,1.606,3.783,1.79,3.657C266.502,73.825,264.712,70.173,264.524,70.294z M259.826,70.294
		c-0.184,0.126,1.606,3.783,1.789,3.657C261.803,73.825,260.014,70.173,259.826,70.294z M259.271,70.294
		c-0.188-0.121-1.977,3.531-1.789,3.657C257.665,74.077,259.455,70.42,259.271,70.294z M256.922,70.294
		c-0.188-0.121-1.978,3.531-1.79,3.657C255.316,74.077,257.106,70.42,256.922,70.294z"/>
	<path clip-path="url(#SVGID_4_)" d="M318.002,64.245c-0.188-0.121-1.977,3.531-1.789,3.657
		C316.396,68.029,318.186,64.372,318.002,64.245 M306.256,64.245c-0.188-0.121-1.977,3.531-1.789,3.657
		C304.65,68.029,306.44,64.372,306.256,64.245 M303.01,68.288c-0.671,0-1.004,0.065-1.004,0.191c0,0.131,0.333,0.196,1.004,0.196
		c0.67,0,1.003-0.065,1.003-0.196C304.013,68.353,303.68,68.288,303.01,68.288 M299.763,64.245c-0.184,0.126,1.606,3.783,1.79,3.657
		C301.741,67.776,299.951,64.125,299.763,64.245 M288.914,68.288c-0.67,0-1.003,0.065-1.003,0.191c0,0.131,0.333,0.196,1.003,0.196
		c0.671,0,1.004-0.065,1.004-0.196C289.918,68.353,289.585,68.288,288.914,68.288 M286.565,68.288c-0.67,0-1.003,0.065-1.003,0.191
		c0,0.131,0.333,0.196,1.003,0.196c0.671,0,1.004-0.065,1.004-0.196C287.569,68.353,287.236,68.288,286.565,68.288 M284.216,68.288
		c-0.671,0-1.004,0.065-1.004,0.191c0,0.131,0.333,0.196,1.004,0.196c0.67,0,1.003-0.065,1.003-0.196
		C285.219,68.353,284.886,68.288,284.216,68.288 M281.867,68.288c-0.671,0-1.004,0.065-1.004,0.191c0,0.131,0.333,0.196,1.004,0.196
		c0.67,0,1.003-0.065,1.003-0.196C282.87,68.353,282.537,68.288,281.867,68.288 M275.716,64.245
		c-0.187-0.121-1.977,3.531-1.789,3.657C274.11,68.029,275.9,64.372,275.716,64.245 M262.176,64.245
		c-0.184,0.126,1.606,3.783,1.789,3.657C264.153,67.776,262.364,64.125,262.176,64.245 M259.272,64.245
		c-0.188-0.121-1.978,3.531-1.79,3.657C257.666,68.029,259.456,64.372,259.272,64.245"/>
	<path clip-path="url(#SVGID_4_)" fill="none" stroke="#000000" stroke-miterlimit="2.187" d="M318.002,64.245
		c-0.188-0.121-1.977,3.531-1.789,3.657C316.396,68.029,318.186,64.372,318.002,64.245z M306.256,64.245
		c-0.188-0.121-1.977,3.531-1.789,3.657C304.65,68.029,306.44,64.372,306.256,64.245z M303.01,68.288
		c-0.671,0-1.004,0.065-1.004,0.191c0,0.131,0.333,0.196,1.004,0.196c0.67,0,1.003-0.065,1.003-0.196
		C304.013,68.353,303.68,68.288,303.01,68.288z M299.763,64.245c-0.184,0.126,1.606,3.783,1.79,3.657
		C301.741,67.776,299.951,64.125,299.763,64.245z M288.914,68.288c-0.67,0-1.003,0.065-1.003,0.191c0,0.131,0.333,0.196,1.003,0.196
		c0.671,0,1.004-0.065,1.004-0.196C289.918,68.353,289.585,68.288,288.914,68.288z M286.565,68.288c-0.67,0-1.003,0.065-1.003,0.191
		c0,0.131,0.333,0.196,1.003,0.196c0.671,0,1.004-0.065,1.004-0.196C287.569,68.353,287.236,68.288,286.565,68.288z M284.216,68.288
		c-0.671,0-1.004,0.065-1.004,0.191c0,0.131,0.333,0.196,1.004,0.196c0.67,0,1.003-0.065,1.003-0.196
		C285.219,68.353,284.886,68.288,284.216,68.288z M281.867,68.288c-0.671,0-1.004,0.065-1.004,0.191
		c0,0.131,0.333,0.196,1.004,0.196c0.67,0,1.003-0.065,1.003-0.196C282.87,68.353,282.537,68.288,281.867,68.288z M275.716,64.245
		c-0.187-0.121-1.977,3.531-1.789,3.657C274.11,68.029,275.9,64.372,275.716,64.245z M262.176,64.245
		c-0.184,0.126,1.606,3.783,1.789,3.657C264.153,67.776,262.364,64.125,262.176,64.245z M259.272,64.245
		c-0.188-0.121-1.978,3.531-1.79,3.657C257.666,68.029,259.456,64.372,259.272,64.245z"/>
	<path clip-path="url(#SVGID_4_)" d="M320.351,58.197c-0.188-0.12-1.978,3.532-1.79,3.657
		C318.745,61.981,320.534,58.323,320.351,58.197 M308.605,58.197c-0.188-0.12-1.978,3.532-1.79,3.657
		C306.999,61.981,308.788,58.323,308.605,58.197 M297.413,58.197c-0.184,0.126,1.606,3.784,1.79,3.657
		C299.391,61.729,297.601,58.077,297.413,58.197 M278.065,58.197c-0.188-0.12-1.978,3.532-1.79,3.657
		C276.459,61.981,278.249,58.323,278.065,58.197 M260.723,62.239c-0.67,0-1.004,0.065-1.004,0.191c0,0.131,0.334,0.196,1.004,0.196
		c0.67,0,1.004-0.065,1.004-0.196C261.727,62.304,261.393,62.239,260.723,62.239"/>
	<path clip-path="url(#SVGID_4_)" fill="none" stroke="#000000" stroke-miterlimit="2.187" d="M320.351,58.197
		c-0.188-0.12-1.978,3.532-1.79,3.657C318.745,61.981,320.534,58.323,320.351,58.197z M308.605,58.197
		c-0.188-0.12-1.978,3.532-1.79,3.657C306.999,61.981,308.788,58.323,308.605,58.197z M297.413,58.197
		c-0.184,0.126,1.606,3.784,1.79,3.657C299.391,61.729,297.601,58.077,297.413,58.197z M278.065,58.197
		c-0.188-0.12-1.978,3.532-1.79,3.657C276.459,61.981,278.249,58.323,278.065,58.197z M260.723,62.239
		c-0.67,0-1.004,0.065-1.004,0.191c0,0.131,0.334,0.196,1.004,0.196c0.67,0,1.004-0.065,1.004-0.196
		C261.727,62.304,261.393,62.239,260.723,62.239z"/>
	<path clip-path="url(#SVGID_4_)" d="M332.097,52.149c-0.188-0.12-1.978,3.532-1.79,3.657
		C330.491,55.932,332.281,52.275,332.097,52.149 M328.85,56.191c-0.67,0-1.003,0.065-1.003,0.191c0,0.131,0.333,0.196,1.003,0.196
		c0.671,0,1.004-0.065,1.004-0.196C329.854,56.256,329.521,56.191,328.85,56.191 M326.501,56.191c-0.67,0-1.003,0.065-1.003,0.191
		c0,0.131,0.333,0.196,1.003,0.196c0.671,0,1.004-0.065,1.004-0.196C327.505,56.256,327.172,56.191,326.501,56.191 M323.255,52.149
		c-0.184,0.126,1.606,3.783,1.789,3.657C325.232,55.681,323.443,52.029,323.255,52.149 M322.7,52.149
		c-0.188-0.12-1.977,3.532-1.789,3.657C321.094,55.932,322.884,52.275,322.7,52.149 M310.954,52.149
		c-0.188-0.12-1.977,3.532-1.79,3.657C309.348,55.932,311.138,52.275,310.954,52.149 M295.961,56.191
		c-0.67,0-1.003,0.065-1.003,0.191c0,0.131,0.333,0.196,1.003,0.196c0.671,0,1.004-0.065,1.004-0.196
		C296.965,56.256,296.632,56.191,295.961,56.191 M293.612,56.191c-0.67,0-1.003,0.065-1.003,0.191c0,0.131,0.333,0.196,1.003,0.196
		c0.671,0,1.004-0.065,1.004-0.196C294.616,56.256,294.283,56.191,293.612,56.191 M291.263,56.191c-0.67,0-1.003,0.065-1.003,0.191
		c0,0.131,0.333,0.196,1.003,0.196c0.671,0,1.004-0.065,1.004-0.196C292.267,56.256,291.934,56.191,291.263,56.191 M288.914,56.191
		c-0.671,0-1.004,0.065-1.004,0.191c0,0.131,0.333,0.196,1.004,0.196c0.67,0,1.003-0.065,1.003-0.196
		C289.917,56.256,289.584,56.191,288.914,56.191 M286.565,56.191c-0.671,0-1.004,0.065-1.004,0.191c0,0.131,0.333,0.196,1.004,0.196
		c0.67,0,1.003-0.065,1.003-0.196C287.568,56.256,287.235,56.191,286.565,56.191 M284.215,56.191c-0.67,0-1.003,0.065-1.003,0.191
		c0,0.131,0.333,0.196,1.003,0.196c0.671,0,1.004-0.065,1.004-0.196C285.219,56.256,284.886,56.191,284.215,56.191 M281.866,56.191
		c-0.67,0-1.003,0.065-1.003,0.191c0,0.131,0.333,0.196,1.003,0.196c0.671,0,1.004-0.065,1.004-0.196
		C282.87,56.256,282.537,56.191,281.866,56.191 M279.517,56.191c-0.67,0-1.004,0.065-1.004,0.191c0,0.131,0.334,0.196,1.004,0.196
		c0.67,0,1.004-0.065,1.004-0.196C280.521,56.256,280.187,56.191,279.517,56.191"/>
	<path clip-path="url(#SVGID_4_)" fill="none" stroke="#000000" stroke-miterlimit="2.187" d="M332.097,52.149
		c-0.188-0.12-1.978,3.532-1.79,3.657C330.491,55.932,332.281,52.275,332.097,52.149z M328.85,56.191
		c-0.67,0-1.003,0.065-1.003,0.191c0,0.131,0.333,0.196,1.003,0.196c0.671,0,1.004-0.065,1.004-0.196
		C329.854,56.256,329.521,56.191,328.85,56.191z M326.501,56.191c-0.67,0-1.003,0.065-1.003,0.191c0,0.131,0.333,0.196,1.003,0.196
		c0.671,0,1.004-0.065,1.004-0.196C327.505,56.256,327.172,56.191,326.501,56.191z M323.255,52.149
		c-0.184,0.126,1.606,3.783,1.789,3.657C325.232,55.681,323.443,52.029,323.255,52.149z M322.7,52.149
		c-0.188-0.12-1.977,3.532-1.789,3.657C321.094,55.932,322.884,52.275,322.7,52.149z M310.954,52.149
		c-0.188-0.12-1.977,3.532-1.79,3.657C309.348,55.932,311.138,52.275,310.954,52.149z M295.961,56.191
		c-0.67,0-1.003,0.065-1.003,0.191c0,0.131,0.333,0.196,1.003,0.196c0.671,0,1.004-0.065,1.004-0.196
		C296.965,56.256,296.632,56.191,295.961,56.191z M293.612,56.191c-0.67,0-1.003,0.065-1.003,0.191c0,0.131,0.333,0.196,1.003,0.196
		c0.671,0,1.004-0.065,1.004-0.196C294.616,56.256,294.283,56.191,293.612,56.191z M291.263,56.191c-0.67,0-1.003,0.065-1.003,0.191
		c0,0.131,0.333,0.196,1.003,0.196c0.671,0,1.004-0.065,1.004-0.196C292.267,56.256,291.934,56.191,291.263,56.191z M288.914,56.191
		c-0.671,0-1.004,0.065-1.004,0.191c0,0.131,0.333,0.196,1.004,0.196c0.67,0,1.003-0.065,1.003-0.196
		C289.917,56.256,289.584,56.191,288.914,56.191z M286.565,56.191c-0.671,0-1.004,0.065-1.004,0.191
		c0,0.131,0.333,0.196,1.004,0.196c0.67,0,1.003-0.065,1.003-0.196C287.568,56.256,287.235,56.191,286.565,56.191z M284.215,56.191
		c-0.67,0-1.003,0.065-1.003,0.191c0,0.131,0.333,0.196,1.003,0.196c0.671,0,1.004-0.065,1.004-0.196
		C285.219,56.256,284.886,56.191,284.215,56.191z M281.866,56.191c-0.67,0-1.003,0.065-1.003,0.191c0,0.131,0.333,0.196,1.003,0.196
		c0.671,0,1.004-0.065,1.004-0.196C282.87,56.256,282.537,56.191,281.866,56.191z M279.517,56.191c-0.67,0-1.004,0.065-1.004,0.191
		c0,0.131,0.334,0.196,1.004,0.196c0.67,0,1.004-0.065,1.004-0.196C280.521,56.256,280.187,56.191,279.517,56.191z"/>
	<path clip-path="url(#SVGID_4_)" d="M333.549,45.492c-0.099,0-0.15,0.806-0.15,2.418c0,1.613,0.051,2.419,0.15,2.419
		c0.098,0,0.149-0.806,0.149-2.419C333.698,46.298,333.647,45.492,333.549,45.492 M329.332,46.782
		c0.299-0.116,0.205-0.454-0.102-0.338c-0.154,0.06-0.231-0.01-0.231-0.207c0-0.196-0.051-0.292-0.149-0.292
		c-0.098,0-0.149,0.101-0.149,0.297c0,0.202-0.077,0.273-0.231,0.212c-0.307-0.116-0.397,0.222-0.106,0.338
		c0.145,0.055,0.166,0.166,0.068,0.328c-0.201,0.327,0.043,0.544,0.257,0.196c0.106-0.176,0.213-0.176,0.32,0
		c0.218,0.348,0.457,0.131,0.252-0.201C329.157,46.948,329.183,46.837,329.332,46.782 M320.905,46.102
		c-0.184,0.126,1.606,3.783,1.79,3.657C322.883,49.633,321.093,45.981,320.905,46.102 M313.303,46.102
		c-0.188-0.121-1.978,3.531-1.79,3.657C311.697,49.885,313.487,46.228,313.303,46.102"/>
	<path clip-path="url(#SVGID_4_)" fill="none" stroke="#000000" stroke-miterlimit="2.187" d="M333.549,45.492
		c-0.099,0-0.15,0.806-0.15,2.418c0,1.613,0.051,2.419,0.15,2.419c0.098,0,0.149-0.806,0.149-2.419
		C333.698,46.298,333.647,45.492,333.549,45.492z M329.332,46.782c0.299-0.116,0.205-0.454-0.102-0.338
		c-0.154,0.06-0.231-0.01-0.231-0.207c0-0.196-0.051-0.292-0.149-0.292c-0.098,0-0.149,0.101-0.149,0.297
		c0,0.202-0.077,0.273-0.231,0.212c-0.307-0.116-0.397,0.222-0.106,0.338c0.145,0.055,0.166,0.166,0.068,0.328
		c-0.201,0.327,0.043,0.544,0.257,0.196c0.106-0.176,0.213-0.176,0.32,0c0.218,0.348,0.457,0.131,0.252-0.201
		C329.157,46.948,329.183,46.837,329.332,46.782z M320.905,46.102c-0.184,0.126,1.606,3.783,1.79,3.657
		C322.883,49.633,321.093,45.981,320.905,46.102z M313.303,46.102c-0.188-0.121-1.978,3.531-1.79,3.657
		C311.697,49.885,313.487,46.228,313.303,46.102z"/>
	<path clip-path="url(#SVGID_4_)" d="M333.549,39.444c-0.098,0-0.149,0.806-0.149,2.418c0,1.613,0.051,2.419,0.149,2.419
		c0.098,0,0.15-0.806,0.15-2.419C333.699,40.25,333.647,39.444,333.549,39.444 M315.653,40.054c-0.188-0.121-1.978,3.531-1.79,3.657
		C314.047,43.837,315.837,40.18,315.653,40.054"/>
	<path clip-path="url(#SVGID_4_)" fill="none" stroke="#000000" stroke-miterlimit="2.187" d="M333.549,39.444
		c-0.098,0-0.149,0.806-0.149,2.418c0,1.613,0.051,2.419,0.149,2.419c0.098,0,0.15-0.806,0.15-2.419
		C333.699,40.25,333.647,39.444,333.549,39.444z M315.653,40.054c-0.188-0.121-1.978,3.531-1.79,3.657
		C314.047,43.837,315.837,40.18,315.653,40.054z"/>
	<path clip-path="url(#SVGID_4_)" d="M330.303,34.006c-0.184,0.126,1.606,3.783,1.789,3.657
		C332.28,37.537,330.491,33.885,330.303,34.006 M318.002,34.006c-0.188-0.121-1.978,3.531-1.79,3.657
		C316.396,37.789,318.186,34.132,318.002,34.006"/>
	<path clip-path="url(#SVGID_4_)" fill="none" stroke="#000000" stroke-miterlimit="2.187" d="M330.303,34.006
		c-0.184,0.126,1.606,3.783,1.789,3.657C332.28,37.537,330.491,33.885,330.303,34.006z M318.002,34.006
		c-0.188-0.121-1.978,3.531-1.79,3.657C316.396,37.789,318.186,34.132,318.002,34.006z"/>
	<path clip-path="url(#SVGID_4_)" d="M328.389,31.852c0.039,0,0.239,0.177,0.239,0.232l0.376-0.615l0.303-0.937v-1.189l-0.303-0.938
		l-0.376-0.614c0,0.045-0.2,0.231-0.239,0.231l0.321,0.545l0.256,0.831v1.078l-0.256,0.832L328.389,31.852z M326.783,31.041h-0.56
		l-0.337-0.484V29.69l0.342-0.494h0.555l0.333,0.494v0.867L326.783,31.041z M326.223,31.429h0.564l0.432-0.317l0.239-0.59v-0.797
		l-0.244-0.594l-0.431-0.322h-0.56l-0.435,0.322l-0.244,0.594v0.797l0.244,0.59L326.223,31.429z M324.374,32.084
		c0-0.055,0.2-0.232,0.239-0.232l-0.321-0.544l-0.256-0.832v-1.078l0.256-0.831l0.321-0.545c-0.039,0-0.239-0.186-0.239-0.231
		l-0.376,0.614l-0.303,0.938v1.189l0.303,0.937L324.374,32.084z M321.342,31.852c0.038,0,0.239,0.177,0.239,0.232l0.376-0.615
		l0.302-0.937v-1.189l-0.302-0.938l-0.376-0.614c0,0.045-0.201,0.231-0.239,0.231l0.32,0.545l0.256,0.831v1.078l-0.256,0.832
		L321.342,31.852z M319.735,31.041h-0.559l-0.338-0.484V29.69l0.342-0.494h0.555l0.334,0.494v0.867L319.735,31.041z M319.176,31.429
		h0.564l0.431-0.317l0.239-0.59v-0.797l-0.243-0.594l-0.432-0.322h-0.559l-0.436,0.322l-0.243,0.594v0.797l0.243,0.59
		L319.176,31.429z M317.326,32.084c0-0.055,0.201-0.232,0.239-0.232l-0.32-0.544l-0.256-0.832v-1.078l0.256-0.831l0.32-0.545
		c-0.038,0-0.239-0.186-0.239-0.231l-0.376,0.614l-0.303,0.938v1.189l0.303,0.937L317.326,32.084z"/>
	<path clip-path="url(#SVGID_4_)" fill="none" stroke="#000000" stroke-miterlimit="2.187" d="M328.389,31.852
		c0.039,0,0.239,0.177,0.239,0.232l0.376-0.615l0.303-0.937v-1.189l-0.303-0.938l-0.376-0.614c0,0.045-0.2,0.231-0.239,0.231
		l0.321,0.545l0.256,0.831v1.078l-0.256,0.832L328.389,31.852z M326.783,31.041h-0.56l-0.337-0.484V29.69l0.342-0.494h0.555
		l0.333,0.494v0.867L326.783,31.041z M326.223,31.429h0.564l0.432-0.317l0.239-0.59v-0.797l-0.244-0.594l-0.431-0.322h-0.56
		l-0.435,0.322l-0.244,0.594v0.797l0.244,0.59L326.223,31.429z M324.374,32.084c0-0.055,0.2-0.232,0.239-0.232l-0.321-0.544
		l-0.256-0.832v-1.078l0.256-0.831l0.321-0.545c-0.039,0-0.239-0.186-0.239-0.231l-0.376,0.614l-0.303,0.938v1.189l0.303,0.937
		L324.374,32.084z M321.342,31.852c0.038,0,0.239,0.177,0.239,0.232l0.376-0.615l0.302-0.937v-1.189l-0.302-0.938l-0.376-0.614
		c0,0.045-0.201,0.231-0.239,0.231l0.32,0.545l0.256,0.831v1.078l-0.256,0.832L321.342,31.852z M319.735,31.041h-0.559l-0.338-0.484
		V29.69l0.342-0.494h0.555l0.334,0.494v0.867L319.735,31.041z M319.176,31.429h0.564l0.431-0.317l0.239-0.59v-0.797l-0.243-0.594
		l-0.432-0.322h-0.559l-0.436,0.322l-0.243,0.594v0.797l0.243,0.59L319.176,31.429z M317.326,32.084
		c0-0.055,0.201-0.232,0.239-0.232l-0.32-0.544l-0.256-0.832v-1.078l0.256-0.831l0.32-0.545c-0.038,0-0.239-0.186-0.239-0.231
		l-0.376,0.614l-0.303,0.938v1.189l0.303,0.937L317.326,32.084z"/>
	<path clip-path="url(#SVGID_4_)" fill="#FFFFFF" d="M606.954,369.291l-2.512-2.512c-37.677,4.187-70.33,18.42-106.332,24.281
		c-30.142,5.861-60.283,15.908-90.425,18.42c4.187-6.698,2.512-16.746,2.512-20.095l3.349-4.186
		c2.512-44.375,20.094-86.238,26.793-126.427c-4.187-8.372-12.559-14.233-12.559-24.28c-15.908-10.047-40.189-18.42-60.283-8.373
		c-70.33,42.701-136.474,88.75-195.083,150.707h-3.349c-2.512-30.141,21.769-57.771,27.63-92.099
		c18.42-52.747,50.236-100.471,80.377-149.032c4.187,0,2.512-7.536,8.373-10.048c1.674-7.535,1.674-20.094-5.861-27.629
		l-8.373-4.187c-5.86-2.511-11.721-2.511-18.419,0c-43.538,44.375-73.68,100.472-103.821,152.382
		c-36.429,74.441-87.067,184.081-29.392,260.917H28.346v58.8h360.835v-58.8H234.502c8.906-6.836,16.771-15.755,24.988-23.971
		c15.908-23.444,33.49-56.097,43.537-86.238c16.746-17.583,24.281-40.189,36.84-60.283c0,14.233-8.373,44.375-12.559,60.283
		c-5.861,36.002,8.373,56.096,28.467,80.377c15.908,22.606,46.05,15.908,67.818,12.559c36.84-20.094,110.519-48.561,143.172-82.889
		C582.673,396.921,596.907,385.199,606.954,369.291"/>
	<path clip-path="url(#SVGID_4_)" fill="none" stroke="#000000" stroke-width="2.4" stroke-linejoin="round" d="M606.954,369.291
		l-2.512-2.512c-37.677,4.187-70.33,18.42-106.332,24.281c-30.142,5.861-60.283,15.908-90.425,18.42
		c4.187-6.698,2.512-16.746,2.512-20.095l3.349-4.186c2.512-44.375,20.094-86.238,26.793-126.427
		c-4.187-8.372-12.559-14.233-12.559-24.28c-15.908-10.047-40.189-18.42-60.283-8.373c-70.33,42.701-136.474,88.75-195.083,150.707
		h-3.349c-2.512-30.141,21.769-57.771,27.63-92.099c18.42-52.747,50.236-100.471,80.377-149.032c4.187,0,2.512-7.536,8.373-10.048
		c1.674-7.535,1.674-20.094-5.861-27.629l-8.373-4.187c-5.86-2.511-11.721-2.511-18.419,0
		c-43.538,44.375-73.68,100.472-103.821,152.382c-36.429,74.441-87.067,184.081-29.392,260.917H28.346v58.8h360.835v-58.8H234.502
		c8.906-6.836,16.771-15.755,24.988-23.971c15.908-23.444,33.49-56.097,43.537-86.238c16.746-17.583,24.281-40.189,36.84-60.283
		c0,14.233-8.373,44.375-12.559,60.283c-5.861,36.002,8.373,56.096,28.467,80.377c15.908,22.606,46.05,15.908,67.818,12.559
		c36.84-20.094,110.519-48.561,143.172-82.889C582.673,396.921,596.907,385.199,606.954,369.291z"/>
	
		<line clip-path="url(#SVGID_4_)" fill="none" stroke="#000000" stroke-width="2.4" stroke-linecap="round" x1="341.792" y1="97.295" x2="809.509" y2="97.295"/>
	
		<line clip-path="url(#SVGID_4_)" fill="none" stroke="#000000" stroke-width="2.4" stroke-linecap="round" x1="341.792" y1="106.082" x2="809.509" y2="106.082"/>
	
		<line clip-path="url(#SVGID_4_)" fill="none" stroke="#000000" stroke-width="2.4" stroke-linecap="round" x1="341.792" y1="114.87" x2="809.509" y2="114.87"/>
	
		<line clip-path="url(#SVGID_4_)" fill="none" stroke="#000000" stroke-width="2.4" stroke-linecap="round" x1="341.792" y1="123.657" x2="809.509" y2="123.657"/>
	
		<line clip-path="url(#SVGID_4_)" fill="none" stroke="#000000" stroke-width="2.4" stroke-linecap="round" x1="341.792" y1="132.444" x2="809.509" y2="132.444"/>
	
		<line clip-path="url(#SVGID_4_)" fill="none" stroke="#000000" stroke-width="2.4" stroke-linecap="round" x1="341.792" y1="141.232" x2="809.509" y2="141.232"/>
	<path clip-path="url(#SVGID_4_)" d="M304.983,542.197c-0.638,0-1.165-0.463-1.151-1.249c0.014-0.797,0.569-1.245,1.206-1.245
		c0.636,0,1.167,0.443,1.153,1.235C306.179,541.637,305.708,542.197,304.983,542.197 M305.039,539.02
		c-1.02,0-1.887,0.725-1.908,1.919c-0.021,1.192,0.826,1.941,1.736,1.941c0.35,0,0.631-0.16,0.884-0.441l-1.225,2.517h0.747
		c0,0,1.314-2.8,1.41-3.05c0.144-0.381,0.204-0.689,0.209-0.974C306.913,539.753,306.062,539.02,305.039,539.02 M300.107,539.109
		v0.663h1.044v3.837h0.701v-4.5H300.107z M297.271,543.016c-0.738,0-1.476-0.589-1.476-1.647c0-1.059,0.747-1.666,1.476-1.666
		c0.73,0,1.459,0.616,1.459,1.666C298.73,542.427,297.992,543.016,297.271,543.016 M297.271,543.699c1.13,0,2.16-0.883,2.16-2.33
		c0-1.439-1.03-2.349-2.16-2.349c-1.138,0-2.177,0.91-2.177,2.349C295.094,542.816,296.133,543.699,297.271,543.699
		 M291.985,542.944l0.929-0.692c0.738-0.554,1.197-1.033,1.197-1.74c0-0.799-0.571-1.501-1.62-1.501
		c-0.897,0-1.656,0.696-1.565,1.585h0.609c-0.001-0.541,0.438-0.92,0.956-0.92c0.634,0,0.921,0.38,0.921,0.878
		c0,0.897-0.886,1.203-2.415,2.39h0.001v0.665h3.272v-0.664L291.985,542.944z M286.499,539.685c0.609,0,1.13,0.412,1.189,1.216
		h-2.619C285.243,540.152,285.756,539.685,286.499,539.685 M287.719,542.166c-0.149,0.513-0.6,0.868-1.203,0.868
		c-0.828,0-1.409-0.595-1.494-1.486h3.383c0.095-1.633-0.652-2.528-1.935-2.528c-1.23,0-2.149,1.003-2.149,2.349
		c0,1.355,0.954,2.33,2.194,2.33c1.023,0,1.72-0.667,1.867-1.533H287.719z M281.87,539.02c-0.726,0-1.322,0.532-1.528,1.373v-1.283
		h-0.701v4.499h0.701v-2.67c0.171-0.719,0.733-1.209,1.395-1.209c0.638,0,0.964,0.352,0.964,1.042v2.837h0.701v-3.016
		C283.402,539.62,282.827,539.02,281.87,539.02 M277.769,539.11v2.634c-0.104,0.414-0.43,1.245-1.376,1.245
		c-0.56,0-0.983-0.252-0.983-1.059v-2.82h-0.701v2.999c0,1.252,0.857,1.59,1.549,1.59c1.066,0,1.398-1,1.511-1.586v1.496h0.701
		v-4.499H277.769z M272.784,545.411h0.701v-6.301h-0.701V545.411z M273.583,537.31h-0.917v0.872h0.917V537.31z"/>
	<path clip-path="url(#SVGID_4_)" d="M323.821,532.035c-0.757,0-1.476-0.589-1.476-1.666c0-1.077,0.728-1.683,1.476-1.683
		c0.748,0,1.459,0.615,1.459,1.683C325.28,531.446,324.56,532.035,323.821,532.035 M323.821,532.7c1.13,0,2.16-0.884,2.16-2.331
		c0-1.438-1.03-2.348-2.16-2.348c-1.138,0-2.177,0.91-2.177,2.348C321.644,531.816,322.683,532.7,323.821,532.7 M317.017,527.418
		h1.827c0.824,0,1.225,0.364,1.225,0.999c0,0.661-0.398,1.125-1.223,1.125l0.003,0.344h-0.001l-0.002-0.344h-1.829V527.418z
		 M319.394,529.906c0.804-0.131,1.376-0.581,1.376-1.487c0-1.102-0.713-1.656-1.924-1.656h-2.53v5.847h0.701v-2.404h1.661
		c0.982,0,1.302,0.218,1.302,0.94v1.464h0.699v-1.461C320.679,530.211,320.183,529.968,319.394,529.906 M312.619,533.878
		c0.344-0.361,0.69-0.778,0.69-1.514v-0.626h-0.953v0.865l0.441,0.099c-0.011,0.314-0.183,0.651-0.369,0.987L312.619,533.878z
		 M312.032,528.111h-0.955v-1.168h-0.701v1.168h-0.955v0.665h0.955v3.834h0.701v-3.834h0.955V528.111z M305.596,531.162
		c-0.067,0.454,0.298,1.538,1.733,1.538c0.954,0,1.489-0.528,1.489-1.288c0-0.829-0.637-1.069-1.334-1.354
		c-0.507-0.211-0.997-0.378-0.997-0.776c0-0.358,0.268-0.596,0.764-0.596c0.468,0,0.716,0.238,0.799,0.776h0.609
		c-0.018-0.864-0.506-1.441-1.392-1.441c-0.882,0-1.481,0.571-1.481,1.287c0,0.873,0.883,1.173,1.561,1.423
		c0.429,0.16,0.77,0.29,0.77,0.692c0,0.355-0.216,0.612-0.809,0.612c-0.68,0-1.027-0.348-1.062-0.873H305.596z M302.978,528.686
		c0.608,0,1.13,0.411,1.189,1.216h-2.619C301.722,529.152,302.235,528.686,302.978,528.686 M304.197,531.167
		c-0.148,0.513-0.599,0.868-1.202,0.868c-0.828,0-1.409-0.595-1.494-1.486h3.383c0.095-1.634-0.652-2.528-1.935-2.528
		c-1.23,0-2.149,1.002-2.149,2.348c0,1.355,0.954,2.331,2.194,2.331c1.023,0,1.72-0.668,1.867-1.533H304.197z M298.81,529.334
		v-1.223h-0.701v4.499h0.701v-2.598c0.11-0.389,0.462-1.237,1.429-1.237v-0.753C299.305,528.022,298.934,528.833,298.81,529.334
		 M294.9,532.026c-0.815,0-1.409-0.689-1.409-1.657c0-0.967,0.512-1.674,1.409-1.674c0.899,0,1.337,0.681,1.337,1.674
		C296.237,531.271,295.814,532.026,294.9,532.026 M296.237,528.111v1.19c-0.154-0.757-0.543-1.28-1.418-1.28
		c-1.144,0-2.029,1-2.029,2.348c0,1.358,0.885,2.33,1.937,2.33c0.932,0,1.348-0.723,1.51-1.469v0.49c0,0.288,0.062,0.89,0.062,0.89
		h0.639v-4.499H296.237z M290.33,528.022c-0.726,0-1.322,0.531-1.528,1.374v-3.082h-0.701v6.296h0.701v-2.671
		c0.172-0.717,0.734-1.209,1.398-1.209c0.635,0,0.961,0.35,0.961,1.041v2.839h0.701v-3.01
		C291.862,528.622,291.287,528.022,290.33,528.022 M287.07,530.92h-0.635c-0.205,0.707-0.664,1.115-1.385,1.115
		c-0.785,0-1.477-0.609-1.477-1.666s0.701-1.683,1.477-1.683c0.63,0,1.167,0.415,1.378,1.107h0.637
		c-0.145-1.103-1.019-1.772-2.015-1.772c-1.141,0-2.177,0.911-2.177,2.348c0,1.447,1.036,2.331,2.177,2.331
		C286.054,532.7,286.934,532.039,287.07,530.92 M281.253,528.111v2.634c-0.104,0.413-0.431,1.245-1.377,1.245
		c-0.56,0-0.982-0.252-0.982-1.06v-2.819h-0.701v2.999c0,1.251,0.856,1.59,1.548,1.59c1.066,0,1.398-1,1.512-1.586v1.496h0.701
		v-4.499H281.253z M275.193,531.947h-1.645v-1.902h1.462l0.005-0.665h-1.467v-1.957h1.558c0.695,0,1.225,0.267,1.225,0.923
		c0,0.67-0.499,1.034-1.312,1.034l0.008,0.28l-0.013,0.385c0.717,0,1.487,0.146,1.487,0.939
		C276.501,531.656,276.004,531.947,275.193,531.947 M277.201,530.978c0-0.953-0.636-1.242-1.406-1.327
		c0.743-0.126,1.226-0.489,1.226-1.326c0-0.98-0.715-1.565-1.91-1.565h-2.264v5.851h2.532v-0.005
		C276.439,532.554,277.201,532.037,277.201,530.978"/>
	<path clip-path="url(#SVGID_4_)" d="M221.118,543.609h0.701v-6.299h-0.701V543.609z M217.819,543.025
		c-0.815,0-1.409-0.689-1.409-1.656c0-0.968,0.511-1.675,1.409-1.675c0.899,0,1.337,0.682,1.337,1.675
		C219.156,542.271,218.732,543.025,217.819,543.025 M219.156,539.11v1.191c-0.154-0.757-0.544-1.281-1.418-1.281
		c-1.144,0-2.029,1.001-2.029,2.349c0,1.358,0.885,2.33,1.937,2.33c0.932,0,1.348-0.724,1.51-1.469v0.49
		c0,0.287,0.062,0.889,0.062,0.889h0.639v-4.499H219.156z M214.559,539.11l-1.264,3.585l-1.243-3.585h-0.762l1.683,4.5h0.658
		l1.69-4.5H214.559z M209.76,543.609h0.701v-4.499h-0.701V543.609z M210.569,537.31h-0.917v0.872h0.917V537.31z M208.834,539.11
		h-0.956v-1.168h-0.701v1.168h-0.955v0.665h0.955v3.834h0.701v-3.834h0.956V539.11z M202.398,542.161
		c-0.068,0.454,0.297,1.538,1.732,1.538c0.955,0,1.489-0.527,1.489-1.288c0-0.829-0.636-1.069-1.333-1.354
		c-0.508-0.21-0.998-0.377-0.998-0.775c0-0.359,0.268-0.597,0.764-0.597c0.468,0,0.716,0.239,0.799,0.777h0.61
		c-0.018-0.865-0.507-1.442-1.392-1.442c-0.883,0-1.482,0.572-1.482,1.287c0,0.873,0.884,1.173,1.562,1.424
		c0.428,0.16,0.769,0.29,0.769,0.691c0,0.356-0.216,0.612-0.809,0.612c-0.679,0-1.026-0.347-1.062-0.873H202.398z M199.779,539.685
		c0.609,0,1.13,0.412,1.189,1.216h-2.618C198.524,540.152,199.036,539.685,199.779,539.685 M200.999,542.166
		c-0.149,0.513-0.6,0.868-1.202,0.868c-0.829,0-1.41-0.595-1.495-1.486h3.383c0.095-1.633-0.652-2.528-1.935-2.528
		c-1.23,0-2.148,1.003-2.148,2.349c0,1.355,0.953,2.33,2.193,2.33c1.024,0,1.72-0.668,1.867-1.533H200.999z M197.306,538.422v-0.663
		h-4.079v5.85h0.701v-2.583h2.765v-0.665h-2.765v-1.939H197.306z M189.249,543.609h0.701v-6.299h-0.701V543.609z M185.95,543.025
		c-0.815,0-1.409-0.689-1.409-1.656c0-0.968,0.512-1.675,1.409-1.675c0.899,0,1.338,0.682,1.338,1.675
		C187.288,542.271,186.864,543.025,185.95,543.025 M187.288,539.11v1.191c-0.155-0.757-0.544-1.281-1.419-1.281
		c-1.144,0-2.028,1.001-2.028,2.349c0,1.358,0.884,2.33,1.937,2.33c0.931,0,1.348-0.724,1.51-1.469v0.49
		c0,0.287,0.062,0.889,0.062,0.889h0.638v-4.499H187.288z M181.389,539.02c-0.726,0-1.322,0.532-1.527,1.373v-1.283h-0.701v4.499
		h0.701v-2.67c0.171-0.719,0.732-1.209,1.394-1.209c0.639,0,0.965,0.352,0.965,1.041v2.838h0.701v-3.016
		C182.922,539.62,182.347,539.02,181.389,539.02 M177.226,543.609h0.701v-4.499h-0.701V543.609z M178.035,537.31h-0.917v0.872h0.917
		V537.31z M174.46,539.02c-0.682,0-1.247,0.466-1.484,1.217c-0.126-0.761-0.669-1.217-1.504-1.217c-0.727,0-1.323,0.532-1.528,1.373
		v-1.283h-0.701v4.499h0.701v-2.67c0.171-0.719,0.732-1.209,1.394-1.209c0.639,0,0.965,0.352,0.965,1.041v2.838h0.701v-2.903
		c0.226-0.589,0.734-0.976,1.323-0.976c0.638,0,0.964,0.352,0.964,1.041v2.838h0.701v-3.016
		C175.992,539.62,175.417,539.02,174.46,539.02 M167.308,543.609h0.701v-4.499h-0.701V543.609z M168.117,537.31H167.2v0.872h0.917
		V537.31z M162.996,542.947v-5.187h-0.701v5.846h0.654v0.004h3.262v-0.663H162.996z"/>
	<path clip-path="url(#SVGID_4_)" d="M219.238,528.686c0.608,0,1.13,0.411,1.189,1.216h-2.619
		C217.982,529.152,218.495,528.686,219.238,528.686 M220.457,531.167c-0.148,0.513-0.599,0.868-1.202,0.868
		c-0.828,0-1.409-0.595-1.494-1.486h3.383c0.094-1.634-0.652-2.528-1.936-2.528c-1.23,0-2.148,1.002-2.148,2.348
		c0,1.355,0.954,2.331,2.194,2.331c1.023,0,1.72-0.668,1.866-1.533H220.457z M213.968,532.026c-0.816,0-1.409-0.689-1.409-1.657
		c0-0.967,0.511-1.674,1.409-1.674s1.337,0.681,1.337,1.674C215.305,531.271,214.881,532.026,213.968,532.026 M215.305,526.311
		v3.001c-0.158-0.762-0.566-1.291-1.51-1.291c-1.125,0-1.937,1-1.937,2.348c0,1.358,0.857,2.33,1.937,2.33
		c0.932,0,1.348-0.723,1.51-1.469v0.49c0,0.287,0.062,0.89,0.062,0.89h0.639v-6.299H215.305z M209.407,528.021
		c-0.727,0-1.323,0.531-1.528,1.373v-1.283h-0.701v4.499h0.701v-2.671c0.171-0.718,0.732-1.208,1.395-1.208
		c0.638,0,0.964,0.351,0.964,1.041v2.838h0.701v-3.017C210.939,528.62,210.364,528.021,209.407,528.021 M204.099,532.035
		c-0.756,0-1.476-0.589-1.476-1.666c0-1.077,0.728-1.683,1.476-1.683s1.459,0.615,1.459,1.683
		C205.558,531.446,204.839,532.035,204.099,532.035 M204.099,532.7c1.13,0,2.16-0.884,2.16-2.331c0-1.438-1.03-2.348-2.16-2.348
		c-1.138,0-2.177,0.91-2.177,2.348C201.922,531.816,202.961,532.7,204.099,532.7 M200.167,526.761l-2.502,5.142l-2.494-5.142h-0.701
		v5.85h0.701v-4.291l2.151,4.291h0.695l2.15-4.306v4.306h0.701v-5.85H200.167z M190.212,529.334v-1.223h-0.701v4.499h0.701v-2.598
		c0.111-0.389,0.462-1.237,1.429-1.237v-0.753C190.707,528.022,190.336,528.833,190.212,529.334 M187.639,528.111v2.634
		c-0.104,0.413-0.43,1.245-1.376,1.245c-0.56,0-0.983-0.252-0.983-1.06v-2.819h-0.701v2.999c0,1.251,0.857,1.59,1.549,1.59
		c1.066,0,1.398-1,1.511-1.586v1.496h0.701v-4.499H187.639z M181.501,532.035c-0.757,0-1.477-0.589-1.477-1.666
		c0-1.077,0.729-1.683,1.477-1.683s1.458,0.615,1.458,1.683C182.959,531.446,182.24,532.035,181.501,532.035 M181.501,532.7
		c1.13,0,2.159-0.884,2.159-2.331c0-1.438-1.029-2.348-2.159-2.348c-1.139,0-2.178,0.91-2.178,2.348
		C179.323,531.816,180.362,532.7,181.501,532.7 M177.65,534.412h0.701v-6.301h-0.701V534.412z M178.449,526.311h-0.917v0.872h0.917
		V526.311z M174.874,528.021c-0.726,0-1.322,0.531-1.527,1.373v-1.283h-0.701v4.499h0.701v-2.671
		c0.171-0.718,0.732-1.208,1.394-1.208c0.639,0,0.965,0.351,0.965,1.041v2.838h0.701v-3.017
		C176.407,528.62,175.832,528.021,174.874,528.021 M169.567,532.035c-0.757,0-1.476-0.589-1.476-1.666
		c0-1.077,0.728-1.683,1.476-1.683s1.459,0.615,1.459,1.683C171.026,531.446,170.306,532.035,169.567,532.035 M169.567,532.7
		c1.13,0,2.159-0.884,2.159-2.331c0-1.438-1.029-2.348-2.159-2.348c-1.139,0-2.177,0.91-2.177,2.348
		C167.39,531.816,168.428,532.7,169.567,532.7 M164.642,531.947h-1.645v-1.902h1.462l0.005-0.665h-1.467v-1.957h1.558
		c0.695,0,1.225,0.267,1.225,0.923c0,0.67-0.499,1.034-1.312,1.034l0.008,0.28l-0.013,0.385c0.717,0,1.487,0.146,1.487,0.939
		C165.95,531.656,165.453,531.947,164.642,531.947 M166.65,530.978c0-0.953-0.636-1.242-1.406-1.327
		c0.743-0.126,1.226-0.489,1.226-1.326c0-0.98-0.715-1.565-1.91-1.565h-2.264v5.851h2.532v-0.005
		C165.888,532.554,166.65,532.037,166.65,530.978"/>
	<path clip-path="url(#SVGID_4_)" d="M86.913,542.95c-0.858,0-1.283-0.667-1.331-1.496v-0.314c0.055-0.909,0.593-1.521,1.331-1.521
		c0.896,0,1.406,0.707,1.406,1.675C88.319,542.261,87.736,542.95,86.913,542.95 M87.085,538.945c-0.933,0-1.341,0.519-1.503,1.27
		v-0.248l-0.025-0.932h-0.676v6.3h0.701v-3.159c0.165,0.738,0.582,1.448,1.503,1.448c1.033,0,1.935-0.973,1.935-2.329
		C89.02,539.945,88.145,538.945,87.085,538.945 M81.803,542.959c-0.757,0-1.477-0.588-1.477-1.665c0-1.077,0.729-1.684,1.477-1.684
		s1.459,0.616,1.459,1.684C83.262,542.371,82.542,542.959,81.803,542.959 M81.803,543.624c1.13,0,2.159-0.883,2.159-2.33
		c0-1.439-1.029-2.349-2.159-2.349c-1.139,0-2.178,0.91-2.178,2.349C79.625,542.741,80.664,543.624,81.803,543.624 M77.165,538.946
		c-0.726,0-1.322,0.532-1.528,1.374v-3.082h-0.7v6.296h0.7v-2.67c0.172-0.718,0.734-1.21,1.398-1.21
		c0.635,0,0.962,0.351,0.962,1.041v2.839h0.7v-3.01C78.697,539.547,78.123,538.946,77.165,538.946 M70.688,542.086
		c-0.068,0.454,0.298,1.538,1.733,1.538c0.954,0,1.489-0.527,1.489-1.288c0-0.829-0.637-1.068-1.334-1.354
		c-0.508-0.21-0.997-0.377-0.997-0.775c0-0.358,0.268-0.597,0.764-0.597c0.467,0,0.715,0.239,0.799,0.777h0.609
		c-0.018-0.865-0.507-1.442-1.392-1.442c-0.882,0-1.481,0.572-1.481,1.287c0,0.873,0.883,1.173,1.561,1.424
		c0.429,0.16,0.77,0.29,0.77,0.692c0,0.355-0.217,0.611-0.809,0.611c-0.68,0-1.027-0.347-1.063-0.873H70.688z M68.054,541.031
		l2.009-1.996H69.06l-1.954,1.994l2.213,2.505h0.895L68.054,541.031z M66.387,543.534h0.701v-6.299h-0.701V543.534z M64.037,540.259
		v-1.224h-0.701v4.499h0.701v-2.597c0.11-0.389,0.462-1.238,1.429-1.238v-0.753C64.532,538.946,64.161,539.757,64.037,540.259
		 M60.257,542.959c-0.757,0-1.476-0.588-1.476-1.665c0-1.077,0.728-1.684,1.476-1.684c0.748,0,1.459,0.616,1.459,1.684
		C61.716,542.371,60.996,542.959,60.257,542.959 M60.257,543.624c1.13,0,2.16-0.883,2.16-2.33c0-1.439-1.03-2.349-2.16-2.349
		c-1.139,0-2.177,0.91-2.177,2.349C58.08,542.741,59.118,543.624,60.257,543.624 M56.938,539.033l-1.132,3.551l-0.926-3.551h-0.854
		l-0.947,3.551l-1.112-3.551h-0.763l1.533,4.502h0.658l1.057-3.653l1.051,3.653h0.658l1.54-4.502H56.938z"/>
</g>
<path d="M114.046,528.81h0.988v-1.101h-0.988l-0.247,1.103h-0.493v1.11h0.247v1.112h-0.494l-0.247,1.101h2.222v-1.101h-0.247v-1.112
	h-0.741V528.81z M111.594,532.135h0.627v-1.101h-0.313L111.594,532.135z M110.663,531.033v-1.11l-0.618,1.11H110.663z
	 M110.046,529.922h0.304v-1.11h-0.93v1.111h-0.313v2.212h2.185l-1.246-1.101V529.922z M112.535,528.812h-0.94v-1.103h-0.931v1.101
	h0.628v1.112h0.93L112.535,528.812z M107.347,528.81h0.988v-1.101h-0.988l-0.246,1.103h-0.494v1.11h0.247v1.112h-0.494l-0.247,1.101
	h2.222v-1.101h-0.247v-1.112h-0.741V528.81z M103.549,531.034l0.322-1.112h0.171L103.549,531.034z M105.827,527.709h-0.654
	l-0.324,1.103h-0.323l-0.323,0.73v-0.73h-0.333v-1.103h-0.645l-0.655,1.101v1.112h0.331v-1.112h0.647v1.113h-0.323v1.111h-0.324
	v1.101h0.969v-1.102h0.656v-1.111h0.647v-1.112h0.332l0.322,1.112V527.709z M101.913,528.812h-0.996v1.11h0.333v1.112h-0.333v1.101
	h0.333l0.331-1.101h0.332V528.812z M98.902,531.034v-1.112h0.333v-1.11h-0.664v1.111h-0.333v1.11h0.333v1.102h0.664v-1.101H98.902z
	 M100.917,527.709H99.91l-0.332,1.101h1.34V527.709z M96.643,526.598v2.214h-2.86v-1.104l1.14-1.11h-2.289v3.324l-0.57,1.111
	l-0.57,1.102h1.718v-2.213h2.852v1.111l-1.141,1.102h1.719v-2.213h0.57v-3.324H96.643z M83.807,529.922v-1.11l-0.656,1.111
	L83.807,529.922z M82.497,528.81h1.976l1.311-1.101l-0.657-1.111v1.111h-2.63V528.81z M89.07,526.598h-2.632l-0.654,2.213v1.112
	h0.654v-2.215h0.666v2.215l-0.665,1.111h-3.288v-1.111h-0.655v-1.111h-0.655v2.221h0.656v1.102h1.976v1.112h0.654v-1.112h1.976
	v-1.101h0.656v-1.111h0.656l-0.656-1.112v-1.103h0.656v1.102h0.655V526.598z M78.097,528.81h0.988v-1.101h-0.988l-0.246,1.103
	h-0.493v1.11h0.247v1.112h-0.494l-0.247,1.101h2.221v-1.101h-0.247v-1.112h-0.741V528.81z M76.416,532.135v-1.101h-0.646v-2.224
	l-0.645-1.101h-0.646l-0.647,1.101l-0.646,1.112v-1.112l-0.645-1.101h-0.647l-0.646,1.101l-0.645-1.101h-0.646l-0.646,1.101v1.113
	l0.646-1.113h0.646v1.113h-0.646v2.212h0.645v-1.102h0.646v-1.11h0.646v-1.113h0.647v2.223l-0.646,1.102h1.291v-1.101h0.646v-1.112
	h0.647v-1.112h0.646v2.224h-0.646v1.101H76.416z M66.547,531.034l0.321-1.112h0.172L66.547,531.034z M68.826,527.709h-0.654
	l-0.323,1.103h-0.324l-0.323,0.73v-0.73h-0.333v-1.103h-0.645l-0.655,1.101v1.112h0.331v-1.112h0.648v1.113h-0.324v1.111h-0.324
	v1.101h0.969v-1.102h0.656v-1.111h0.647v-1.112h0.333l0.321,1.112V527.709z M64.912,528.812h-0.997v1.11h0.333v1.112h-0.333v1.101
	h0.333l0.332-1.101h0.332V528.812z M61.9,531.034v-1.112h0.333v-1.11h-0.664v1.111h-0.333v1.11h0.333v1.102h0.664v-1.101H61.9z
	 M63.915,527.709h-1.007l-0.333,1.101h1.34V527.709z M60.229,526.598l-0.882,1.11v1.103l-0.875,1.112h-0.875v-2.215l0.875-1.11
	h-1.747v1.11l-0.884,1.103l-1.749,2.222v-4.435h-0.873v5.537l0.873,1.112v-1.112h0.874v-1.102h0.875v-1.11l0.884-1.112v2.222h0.874
	v1.102h0.872v-1.102h0.876v-1.11h0.882v-2.215h0.874v-1.11H60.229z"/>
</svg>
